begin
comment ./VASP_example_4/
lattice 18.08482376 0.00000000 0.00000000
lattice -9.04241188 15.66191680 0.00000000
lattice 0.00000000 0.00000000 19.61965732
atom  0.04356227 0.02515026 0.07329409  Mg 0.0 0.0  1.24265716e-05 7.35092970e-06 3.30597367e-07
atom  -0.01140833 3.49777072 4.90491439  Mg 0.0 0.0  9.97626173e-06 2.95592940e-06 1.16681424e-07
atom  -3.01419103 15.65602319 0.05695108  Mg 0.0 0.0  5.25066407e-07 7.00088542e-07 -1.25821469e-05
atom  6.02835505 3.48047238 4.90491436  Mg 0.0 0.0  -6.02854023e-07 -5.05619503e-07 1.94469040e-08
atom  12.01287560 0.02530343 0.07335917  Mg 0.0 0.0  -1.13764388e-05 5.95075261e-06 -9.72345198e-07
atom  12.06809257 3.49786395 4.90491437  Mg 0.0 0.0  -1.04624343e-05 3.36431438e-06 -1.36128328e-07
atom  15.07073593 5.17490161 19.56945574  Mg 0.0 0.0  -5.83407119e-07 1.43907089e-06 -5.42568620e-06
atom  -3.01398072 8.70115554 4.90491423  Mg 0.0 0.0  -8.94557582e-07 -3.50044271e-07 1.94469040e-08
atom  3.00900689 5.22353852 0.05695135  Mg 0.0 0.0  7.38982350e-07 -1.94469040e-08 -1.25432531e-05
atom  2.99347783 8.70227813 4.90491431  Mg 0.0 0.0  7.58429254e-07 -9.99570863e-06 -1.94469040e-08
atom  9.04751736 5.22358096 0.05695635  Mg 0.0 0.0  -2.72256655e-07 -2.72256655e-07 -1.26793814e-05
atom  9.06328603 8.70234226 4.90491435  Mg 0.0 0.0  -2.19750015e-06 -1.06180096e-05 -1.94469040e-08
atom  12.01695741 10.46416945 19.56945574  Mg 0.0 0.0  1.08902662e-06 -1.34183637e-06 -5.34789859e-06
atom  -6.01895687 13.90315182 4.90491434  Mg 0.0 0.0  7.62318635e-06 7.05922614e-06 3.11150463e-07
atom  0.03981214 10.46426268 19.56941604  Mg 0.0 0.0  -2.81980107e-06 -1.57519922e-06 -5.05619503e-06
atom  -0.00927901 13.90320609 4.90491432  Mg 0.0 0.0  -8.40106251e-06 5.71738976e-06 -5.83407119e-08
atom  6.02833972 10.39081028 0.07335917  Mg 0.0 0.0  -6.41747831e-07 -1.27182752e-05 -9.72345198e-07
atom  6.02822810 13.92167672 4.90491440  Mg 0.0 0.0  1.01123901e-06 5.25066407e-07 5.83407119e-08
atom  0.04356221 0.02515013 9.73653473  Mg 0.0 0.0  1.28544035e-05 7.21480137e-06 -5.25066407e-07
atom  0.09405576 3.51655377 14.71474306  Mg 0.0 0.0  1.05207750e-05 1.01123901e-06 1.94469040e-08
atom  -3.01419098 15.65602318 9.75287747  Mg 0.0 0.0  3.88938079e-08 6.41747831e-07 1.25238061e-05
atom  6.02820744 3.48038419 14.71474932  Mg 0.0 0.0  6.02854023e-07 1.36128328e-07 1.94469040e-08
atom  12.01287560 0.02530343 9.73647371  Mg 0.0 0.0  -1.12792043e-05 5.79517738e-06 1.03068591e-06
atom  11.96232542 3.51668583 14.71474932  Mg 0.0 0.0  -9.15949176e-06 -3.50044271e-07 1.75022136e-07
atom  15.07073593 5.17490161 9.86004290  Mg 0.0 0.0  -4.47278791e-07 1.47796470e-06 5.34789859e-06
atom  -3.01413396 8.70106744 14.71474291  Mg 0.0 0.0  -4.66725695e-07 -1.36128328e-07 7.77876158e-08
atom  3.00900686 5.22353854 9.75287723  Mg 0.0 0.0  7.38982350e-07 -2.33362847e-07 1.25627000e-05
atom  3.02976010 8.60122074 14.71474932  Mg 0.0 0.0  5.83407119e-06 -6.84531019e-06 -5.83407119e-08
atom  9.04752050 5.22358834 9.75287851  Mg 0.0 0.0  -4.27831887e-07 -2.13915944e-07 1.27182752e-05
atom  9.02669378 8.60133996 14.71474298  Mg 0.0 0.0  -4.80338528e-06 -7.70097397e-06 0.00000000e+00
atom  12.01695741 10.46416945 9.86004290  Mg 0.0 0.0  1.03068591e-06 -9.72345198e-07 5.30900478e-06
atom  -5.94995389 13.98508827 14.71474932  Mg 0.0 0.0  6.39803140e-06 8.63442536e-06 -1.55575232e-07
atom  0.03981209 10.46426272 9.86006993  Mg 0.0 0.0  -2.83924798e-06 -1.61409303e-06 5.07564193e-06
atom  -0.07864963 13.98514850 14.71474295  Mg 0.0 0.0  -3.24763296e-06 8.55663774e-06 7.77876158e-08
atom  6.02833972 10.39081028 9.73647371  Mg 0.0 0.0  -5.25066407e-07 -1.26988283e-05 1.08902662e-06
atom  6.02808790 13.92159668 14.71474329  Y 0.0 0.0  -7.58429254e-07 -3.30597367e-07 -3.30597367e-07
energy -2.179143415073
charge 0.000000000000
end
