begin
comment ./VASP_example_1/
lattice 6.02827459 0.00000000 0.00000000
lattice -3.01413729 5.22063893 0.00000000
lattice 0.00000000 0.00000000 9.80982866
atom  0.00000000 0.00000000 0.00000000  Mg 0.0 0.0  -0.00000000e+00 0.00000000e+00 0.00000000e+00
atom  0.00000000 3.48042199 4.90491644  Mg 0.0 0.0  0.00000000e+00 -0.00000000e+00 0.00000000e+00
energy -0.110704457586
charge 0.000000000000
end
